{
	"info": {
		"_postman_id": "e8dad2d1-cb4d-4e0b-a197-9e2340f107be",
		"name": "Nodejs-Back API-REST",
		"schema": "https://schema.getpostman.com/json/collection/v2.1.0/collection.json"
	},
	"item": [
		{
			"name": "Post",
			"item": [
				{
					"name": "Recuperación de todas las entradas",
					"request": {
						"auth": {
							"type": "bearer",
							"bearer": [
								{
									"key": "token",
									"value": "eyJhbGciOiJIUzI1NiIsInR5cCI6IkpXVCJ9.eyJib2R5Ijp7Il9pZCI6IjVlYTg0ZWEyNDQ0ZjRmMGNlODU4M2ZmNCIsInVzZXJOYW1lIjoidXNlcjMiLCJyb2xlIjoiYWRtaW4ifSwiaWF0IjoxNTg4MTc0NzE1fQ.qddiKNVDJmDle6VGO0pTqGTN3lXdz70lF8JQ9QQ_2F0",
									"type": "string"
								}
							]
						},
						"method": "GET",
						"header": [],
						"url": {
							"raw": "http://localhost:3000/api/post",
							"protocol": "http",
							"host": [
								"localhost"
							],
							"port": "3000",
							"path": [
								"api",
								"post"
							]
						}
					},
					"response": []
				},
				{
					"name": "Recuperación de una entrada por ID",
					"request": {
						"method": "GET",
						"header": [],
						"url": {
							"raw": "http://localhost:3000/api/post/id : post",
							"protocol": "http",
							"host": [
								"localhost"
							],
							"port": "3000",
							"path": [
								"api",
								"post",
								"id : post"
							]
						}
					},
					"response": []
				},
				{
					"name": "Creación de una nueva entrada",
					"request": {
						"method": "POST",
						"header": [],
						"body": {
							"mode": "raw",
							"raw": "{\n\t\"author\": \"\",\n\t\"nickName\":\"\", \n\t\"title\":\"\",\n\t\"text\":\"\"\n\t\"\n}",
							"options": {
								"raw": {
									"language": "json"
								}
							}
						},
						"url": {
							"raw": "http://localhost:3000/api/post",
							"protocol": "http",
							"host": [
								"localhost"
							],
							"port": "3000",
							"path": [
								"api",
								"post"
							]
						}
					},
					"response": []
				},
				{
					"name": "Borrado de una entrada existente",
					"request": {
						"method": "DELETE",
						"header": [],
						"body": {
							"mode": "urlencoded",
							"urlencoded": []
						},
						"url": {
							"raw": "http://localhost:3000/api/post/Pon id de la entrada-post",
							"protocol": "http",
							"host": [
								"localhost"
							],
							"port": "3000",
							"path": [
								"api",
								"post",
								"Pon id de la entrada-post"
							]
						}
					},
					"response": []
				},
				{
					"name": "Modificación de una entrada existente ",
					"request": {
						"method": "PUT",
						"header": [],
						"body": {
							"mode": "raw",
							"raw": "{\n\n    \"author\": \"\",\n    \"nickName\": \"\",\n    \"title\": \"\",\n    \"text\": \"\"\n}",
							"options": {
								"raw": {
									"language": "json"
								}
							}
						},
						"url": {
							"raw": "http://localhost:3000/api/post/Pon el id de la entrada-post a modificar ",
							"protocol": "http",
							"host": [
								"localhost"
							],
							"port": "3000",
							"path": [
								"api",
								"post",
								"Pon el id de la entrada-post a modificar "
							]
						}
					},
					"response": []
				},
				{
					"name": "añadir coment a post ",
					"request": {
						"method": "PUT",
						"header": [],
						"body": {
							"mode": "raw",
							"raw": "{\n\t\"nickName\": \"\",\n    \"comment\": \"\"\n}",
							"options": {
								"raw": {
									"language": "json"
								}
							}
						},
						"url": {
							"raw": "http://localhost:3000/api/post/pon el id del post/comment",
							"protocol": "http",
							"host": [
								"localhost"
							],
							"port": "3000",
							"path": [
								"api",
								"post",
								"pon el id del post",
								"comment"
							],
							"query": [
								{
									"key": "nickName",
									"value": "",
									"disabled": true
								},
								{
									"key": "content",
									"value": "",
									"disabled": true
								},
								{
									"key": "date",
									"value": null,
									"disabled": true
								}
							]
						}
					},
					"response": []
				}
			],
			"protocolProfileBehavior": {}
		},
		{
			"name": "Comment",
			"item": [
				{
					"name": "eliminar comentario ",
					"request": {
						"method": "DELETE",
						"header": [],
						"url": {
							"raw": "http://localhost:3000/api/comment/id del comentario a eliminar",
							"protocol": "http",
							"host": [
								"localhost"
							],
							"port": "3000",
							"path": [
								"api",
								"comment",
								"id del comentario a eliminar"
							]
						}
					},
					"response": []
				},
				{
					"name": "modificar comentario ",
					"request": {
						"method": "PUT",
						"header": [],
						"body": {
							"mode": "raw",
							"raw": "{\n\t\"nickName\": \"\",\n\t\"comment\": \"\"\n}",
							"options": {
								"raw": {
									"language": "json"
								}
							}
						},
						"url": {
							"raw": "http://localhost:3000/api/comment/Pon el id del comentario a modificar ",
							"protocol": "http",
							"host": [
								"localhost"
							],
							"port": "3000",
							"path": [
								"api",
								"comment",
								"Pon el id del comentario a modificar "
							]
						}
					},
					"response": []
				},
				{
					"name": "recuperar todos los comentarios ",
					"request": {
						"method": "GET",
						"header": [],
						"url": {
							"raw": "http://localhost:3000/api/comment/",
							"protocol": "http",
							"host": [
								"localhost"
							],
							"port": "3000",
							"path": [
								"api",
								"comment",
								""
							]
						}
					},
					"response": []
				}
			],
			"protocolProfileBehavior": {}
		},
		{
			"name": "Offensive word",
			"item": [
				{
					"name": "Todas las palabras ofensivas",
					"request": {
						"method": "GET",
						"header": [],
						"url": {
							"raw": "http://localhost:3000/api/ofensiveWord",
							"protocol": "http",
							"host": [
								"localhost"
							],
							"port": "3000",
							"path": [
								"api",
								"ofensiveWord"
							]
						}
					},
					"response": []
				},
				{
					"name": "Añadir palabra ofensiva ",
					"request": {
						"method": "POST",
						"header": [],
						"body": {
							"mode": "raw",
							"raw": "{\n\t\"word\": \"\",\n\t\"level\": \"\"\n}",
							"options": {
								"raw": {
									"language": "json"
								}
							}
						},
						"url": {
							"raw": "http://localhost:3000/api/ofensiveWord",
							"protocol": "http",
							"host": [
								"localhost"
							],
							"port": "3000",
							"path": [
								"api",
								"ofensiveWord"
							]
						}
					},
					"response": []
				},
				{
					"name": "eliminar palabra ofensiva",
					"request": {
						"method": "DELETE",
						"header": [],
						"url": {
							"raw": "http://localhost:3000/api/ofensiveWord/Pon id de la offensiveWord a eliminar",
							"protocol": "http",
							"host": [
								"localhost"
							],
							"port": "3000",
							"path": [
								"api",
								"ofensiveWord",
								"Pon id de la offensiveWord a eliminar"
							]
						}
					},
					"response": []
				},
				{
					"name": "Modificar palabra ofensiva",
					"request": {
						"method": "PUT",
						"header": [],
						"body": {
							"mode": "raw",
							"raw": "{\n\t\"word\":\"\",\n\t\"level\": \"\"\n}",
							"options": {
								"raw": {
									"language": "json"
								}
							}
						},
						"url": {
							"raw": "http://localhost:3000/api/ofensiveWord/Pon el id de la offenciveWord a modificar ",
							"protocol": "http",
							"host": [
								"localhost"
							],
							"port": "3000",
							"path": [
								"api",
								"ofensiveWord",
								"Pon el id de la offenciveWord a modificar "
							]
						}
					},
					"response": []
				}
			],
			"protocolProfileBehavior": {}
		},
		{
			"name": "user",
			"item": [
				{
					"name": "Registrar usuario ",
					"request": {
						"auth": {
							"type": "noauth"
						},
						"method": "POST",
						"header": [],
						"body": {
							"mode": "raw",
							"raw": "{\n\t\"user\":        \"user5\",\n\t\"passwordHash\": \"pass\"\n}",
							"options": {
								"raw": {
									"language": "json"
								}
							}
						},
						"url": {
							"raw": "http://localhost:3000/api/user",
							"protocol": "http",
							"host": [
								"localhost"
							],
							"port": "3000",
							"path": [
								"api",
								"user"
							]
						}
					},
					"response": []
				},
				{
					"name": "Todos los usuarios",
					"request": {
						"method": "GET",
						"header": [],
						"url": {
							"raw": "http://localhost:3000/api/user",
							"protocol": "http",
							"host": [
								"localhost"
							],
							"port": "3000",
							"path": [
								"api",
								"user"
							]
						}
					},
					"response": []
				}
			],
			"protocolProfileBehavior": {}
		},
		{
			"name": "Login",
			"item": [
				{
					"name": "Logear y obtener token",
					"request": {
						"auth": {
							"type": "basic",
							"basic": [
								{
									"key": "password",
									"value": "pass",
									"type": "string"
								},
								{
									"key": "username",
									"value": "user1",
									"type": "string"
								}
							]
						},
						"method": "POST",
						"header": [],
						"url": {
							"raw": "http://localhost:3000/api/login",
							"protocol": "http",
							"host": [
								"localhost"
							],
							"port": "3000",
							"path": [
								"api",
								"login"
							]
						}
					},
					"response": []
				},
				{
					"name": "Modificación de una entrada existente ",
					"request": {
						"auth": {
							"type": "bearer",
							"bearer": [
								{
									"key": "token",
									"value": "eyJhbGciOiJIUzI1NiIsInR5cCI6IkpXVCJ9.eyJib2R5Ijp7Il9pZCI6IjVlYTg0ZTlkNDQ0ZjRmMGNlODU4M2ZmMyIsInVzZXJOYW1lIjoidXNlcjIiLCJyb2xlIjoicHVibGlzaGVyIn0sImlhdCI6MTU4ODE3MDE2MX0.QIQJBgOJTanoXBhHSQOldRfUxLQ-CdLl15ToJ-ytuUI",
									"type": "string"
								}
							]
						},
						"method": "PUT",
						"header": [],
						"body": {
							"mode": "raw",
							"raw": "{\n\n   \"author\": \"Octavia E. Butler\",\n    \"nickName\": \"Butler\",\n    \"title\": \"Amanecer\",\n    \"text\": \"Cuando Lilith Iyapo despertó ya no estaba en la Tierra. Porque la Tierra estaba muerta, y Lilith, temía, estaba viva.\"\n}",
							"options": {
								"raw": {
									"language": "json"
								}
							}
						},
						"url": {
							"raw": "http://localhost:3000/api/post/5ea985106c925d1c67ba7e8a",
							"protocol": "http",
							"host": [
								"localhost"
							],
							"port": "3000",
							"path": [
								"api",
								"post",
								"5ea985106c925d1c67ba7e8a"
							]
						}
					},
					"response": []
				}
			],
			"protocolProfileBehavior": {}
		}
	],
	"protocolProfileBehavior": {}
}